* installing *source* package ‘BMLsimulation’ ...
** R
** preparing package for lazy loading
** help
*** installing help indices
** building package indices
** testing if installed package can be loaded
* DONE (BMLsimulation)
